{
  "reportName" : "Allure Report",
  "testRuns" : [ ],
  "statistic" : {
    "failed" : 24,
    "broken" : 8,
    "skipped" : 0,
    "passed" : 253,
    "unknown" : 4,
    "total" : 289
  },
  "time" : {
    "start" : 1587481365419,
    "stop" : 1587643238943,
    "duration" : 161873524,
    "minDuration" : 0,
    "maxDuration" : 14963,
    "sumDuration" : 430202
  }
}