"Status","Start Time","Stop Time","Duration in ms","Parent Suite","Suite","Sub Suite","Test Class","Test Method","Name","Description"
"passed","Thu Apr 23 14:59:50 EEST 2020","Thu Apr 23 14:59:51 EEST 2020","346","All Test","SPSA API Test","com.epam.services.spsa.BlogServiceTest","com.epam.services.spsa.BlogServiceTest","testGetArticleByCorrectId","testGetArticleByCorrectId",""
"passed","Thu Apr 23 14:59:56 EEST 2020","Thu Apr 23 14:59:57 EEST 2020","345","All Test","SLSA API Test","com.epam.services.slsa.SportTypeServiceTest","com.epam.services.slsa.SportTypeServiceTest","testGetSportTypeByCorrectId","testGetSportTypeByCorrectId",""
"failed","Thu Apr 23 14:03:31 EEST 2020","Thu Apr 23 14:03:32 EEST 2020","319","All Test","SPSA API Test","com.epam.services.spsa.AuthenticationServiceTest","com.epam.services.spsa.AuthenticationServiceTest","testSuccessfulLogInAndLogOut","testSuccessfulLogInAndLogOut",""
"passed","Thu Apr 23 14:58:00 EEST 2020","Thu Apr 23 14:58:00 EEST 2020","358","All Test","SPSA API Test","com.epam.services.spsa.UserAddressServiceTest","com.epam.services.spsa.UserAddressServiceTest","getAddressByIncorrectUsersIdTest","getAddressByIncorrectUsersIdTest",""
"passed","Thu Apr 23 14:57:59 EEST 2020","Thu Apr 23 14:57:59 EEST 2020","391","All Test","SPSA API Test","com.epam.services.spsa.UserAddressServiceTest","com.epam.services.spsa.UserAddressServiceTest","getAddressByCorrectUsersIdTest","getAddressByCorrectUsersIdTest",""
"passed","Thu Apr 23 14:59:39 EEST 2020","Thu Apr 23 14:59:45 EEST 2020","5269","All Test","SPSA API Test","com.epam.services.spsa.BlogServiceTest","com.epam.services.spsa.BlogServiceTest","testAddEditAndDeleteArticleWithImage","testAddEditAndDeleteArticleWithImage",""
"passed","Thu Apr 23 14:59:51 EEST 2020","Thu Apr 23 14:59:52 EEST 2020","351","All Test","SPSA API Test","com.epam.services.spsa.BlogServiceTest","com.epam.services.spsa.BlogServiceTest","testGetArticlesByCorrectPageAndSize","testGetArticlesByCorrectPageAndSize",""
"passed","Thu Apr 23 15:00:24 EEST 2020","Thu Apr 23 15:00:26 EEST 2020","2191","All Test","SLSA API Test","com.epam.services.slsa.LocationServiceTest","com.epam.services.slsa.LocationServiceTest","testAddEditAndDeleteLocationImage","testAddEditAndDeleteLocationImage",""
"passed","Thu Apr 23 15:00:14 EEST 2020","Thu Apr 23 15:00:14 EEST 2020","388","All Test","SLSA API Test","com.epam.services.slsa.CoachServiceTest","com.epam.services.slsa.CoachServiceTest","testGetAllCoachesByCorrectLocationId","testGetAllCoachesByCorrectLocationId",""
"broken","Thu Apr 23 15:00:31 EEST 2020","Thu Apr 23 15:00:32 EEST 2020","562","All Test","SLSA API Test","com.epam.services.slsa.LocationServiceTest","com.epam.services.slsa.LocationServiceTest","testGetAllLocations","testGetAllLocations",""
"passed","Thu Apr 23 15:00:09 EEST 2020","Thu Apr 23 15:00:14 EEST 2020","5206","All Test","SLSA API Test","com.epam.services.slsa.CoachServiceTest","com.epam.services.slsa.CoachServiceTest","testAddAndEditAndDeleteCoach","testAddAndEditAndDeleteCoach",""
"passed","Thu Apr 23 14:58:13 EEST 2020","Thu Apr 23 14:58:13 EEST 2020","464","All Test","SPSA API Test","com.epam.services.spsa.ArticleCommentServiceTest","com.epam.services.spsa.ArticleCommentServiceTest","replyCommentWithImageByIncorrectId","replyCommentWithImageByIncorrectId",""
"passed","Thu Apr 23 14:59:13 EEST 2020","Thu Apr 23 14:59:14 EEST 2020","367","All Test","SPSA API Test","com.epam.services.spsa.UserServiceTest","com.epam.services.spsa.UserServiceTest","testGetUserByIncorrectId","testGetUserByIncorrectId",""
"passed","Thu Apr 23 14:59:26 EEST 2020","Thu Apr 23 14:59:30 EEST 2020","3803","All Test","SPSA API Test","com.epam.services.spsa.EventServiceTest","com.epam.services.spsa.EventServiceTest","testAddEditAndDeleteEvent","testAddEditAndDeleteEvent",""
"passed","Thu Apr 23 14:59:53 EEST 2020","Thu Apr 23 14:59:53 EEST 2020","361","All Test","SPSA API Test","com.epam.services.spsa.RoleServiceTest","com.epam.services.spsa.RoleServiceTest","testGetRoleByCorrectId","testGetRoleByCorrectId",""
"passed","Thu Apr 23 14:59:13 EEST 2020","Thu Apr 23 14:59:13 EEST 2020","409","All Test","SPSA API Test","com.epam.services.spsa.UserServiceTest","com.epam.services.spsa.UserServiceTest","testGetUserByCorrectId","testGetUserByCorrectId",""
"broken","Thu Apr 23 15:00:38 EEST 2020","Thu Apr 23 15:00:38 EEST 2020","555","All Test","SLSA API Test","com.epam.services.slsa.VenueServiceTest","com.epam.services.slsa.VenueServiceTest","testViewMatchedListOfVenues","testViewMatchedListOfVenues",""
"passed","Thu Apr 23 14:58:13 EEST 2020","Thu Apr 23 14:58:13 EEST 2020","362","All Test","SPSA API Test","com.epam.services.spsa.ArticleCommentServiceTest","com.epam.services.spsa.ArticleCommentServiceTest","replyCommentByIncorrectId","replyCommentByIncorrectId",""
"passed","Thu Apr 23 14:59:22 EEST 2020","Thu Apr 23 14:59:22 EEST 2020","332","All Test","SPSA API Test","com.epam.services.spsa.TagServiceTest","com.epam.services.spsa.TagServiceTest","testGetArticlesByIncorrectTag","testGetArticlesByIncorrectTag",""
"passed","Thu Apr 23 14:59:34 EEST 2020","Thu Apr 23 14:59:34 EEST 2020","355","All Test","SPSA API Test","com.epam.services.spsa.EventServiceTest","com.epam.services.spsa.EventServiceTest","testGetEventByIncorrectEventId","testGetEventByIncorrectEventId",""
"passed","Thu Apr 23 14:59:39 EEST 2020","Thu Apr 23 14:59:45 EEST 2020","5277","All Test","SPSA API Test","com.epam.services.spsa.BlogServiceTest","com.epam.services.spsa.BlogServiceTest","testAddEditAndDeleteArticleWithImage","testAddEditAndDeleteArticleWithImage",""
"passed","Thu Apr 23 14:58:41 EEST 2020","Thu Apr 23 14:58:41 EEST 2020","338","All Test","SPSA API Test","com.epam.services.spsa.UserStatisticsServiceTest","com.epam.services.spsa.UserStatisticsServiceTest","testGetUserLastStatisticsByIncorrectI","testGetUserLastStatisticsByIncorrectI",""
"passed","Thu Apr 23 14:57:54 EEST 2020","Thu Apr 23 14:57:59 EEST 2020","5284","All Test","SPSA API Test","com.epam.services.spsa.UserAddressServiceTest","com.epam.services.spsa.UserAddressServiceTest","getAddressByCorrectCoordinatesTest","getAddressByCorrectCoordinatesTest",""
"passed","Thu Apr 23 15:00:15 EEST 2020","Thu Apr 23 15:00:15 EEST 2020","406","All Test","SLSA API Test","com.epam.services.slsa.CoachServiceTest","com.epam.services.slsa.CoachServiceTest","testGetAllCoachesByIncorrectLocationId","testGetAllCoachesByIncorrectLocationId",""
"passed","Thu Apr 23 14:58:00 EEST 2020","Thu Apr 23 14:58:00 EEST 2020","369","All Test","SPSA API Test","com.epam.services.spsa.UserAddressServiceTest","com.epam.services.spsa.UserAddressServiceTest","getAddressByIncorrectUsersIdTest","getAddressByIncorrectUsersIdTest",""
"passed","Thu Apr 23 14:59:22 EEST 2020","Thu Apr 23 14:59:22 EEST 2020","310","All Test","SPSA API Test","com.epam.services.spsa.TagServiceTest","com.epam.services.spsa.TagServiceTest","testGetTagByIncorrectId","testGetTagByIncorrectId",""
"passed","Thu Apr 23 14:58:56 EEST 2020","Thu Apr 23 14:59:11 EEST 2020","14312","All Test","SPSA API Test","com.epam.services.spsa.UserServiceTest","com.epam.services.spsa.UserServiceTest","testAddEditAndDeleteUserWithImageUrl","testAddEditAndDeleteUserWithImageUrl",""
"passed","Thu Apr 23 14:58:39 EEST 2020","Thu Apr 23 14:58:40 EEST 2020","428","All Test","SPSA API Test","com.epam.services.spsa.SportTypeServiceTest","com.epam.services.spsa.SportTypeServiceTest","testGetSportTypeByIncorrectId","testGetSportTypeByIncorrectId",""
"passed","Thu Apr 23 14:59:52 EEST 2020","Thu Apr 23 14:59:53 EEST 2020","348","All Test","SPSA API Test","com.epam.services.spsa.RoleServiceTest","com.epam.services.spsa.RoleServiceTest","testGetAllRoles","testGetAllRoles",""
"passed","Thu Apr 23 15:00:35 EEST 2020","Thu Apr 23 15:00:37 EEST 2020","1873","All Test","SLSA API Test","com.epam.services.slsa.CommentServiceTest","com.epam.services.slsa.CommentServiceTest","testAddEditAndDeleteCommentByUserId","testAddEditAndDeleteCommentByUserId",""
"passed","Thu Apr 23 14:58:13 EEST 2020","Thu Apr 23 14:58:17 EEST 2020","3958","All Test","SPSA API Test","com.epam.services.spsa.ArticleCommentServiceTest","com.epam.services.spsa.ArticleCommentServiceTest","testAddEditReplyAndDeleteComment","testAddEditReplyAndDeleteComment",""
"passed","Thu Apr 23 14:59:56 EEST 2020","Thu Apr 23 14:59:56 EEST 2020","350","All Test","SLSA API Test","com.epam.services.slsa.SportTypeServiceTest","com.epam.services.slsa.SportTypeServiceTest","testGetAllSportTypes","testGetAllSportTypes",""
"failed","Thu Apr 23 13:29:53 EEST 2020","Thu Apr 23 13:29:58 EEST 2020","5825","Default Suite","test-automation_remote","com.epam.services.spsa.EventServiceTest","com.epam.services.spsa.EventServiceTest","testAddEditAndDeleteEvent","testAddEditAndDeleteEvent",""
"passed","Thu Apr 23 15:00:18 EEST 2020","Thu Apr 23 15:00:24 EEST 2020","5349","All Test","SLSA API Test","com.epam.services.slsa.LocationServiceTest","com.epam.services.slsa.LocationServiceTest","testAddEditAndDeleteLocation","testAddEditAndDeleteLocation",""
"passed","Thu Apr 23 14:59:50 EEST 2020","Thu Apr 23 14:59:50 EEST 2020","381","All Test","SPSA API Test","com.epam.services.spsa.BlogServiceTest","com.epam.services.spsa.BlogServiceTest","testEditImageByIncorrectId","testEditImageByIncorrectId",""
"passed","Thu Apr 23 14:58:12 EEST 2020","Thu Apr 23 14:58:12 EEST 2020","393","All Test","SPSA API Test","com.epam.services.spsa.ArticleCommentServiceTest","com.epam.services.spsa.ArticleCommentServiceTest","editCommentWithImageByIncorrectId","editCommentWithImageByIncorrectId",""
"passed","Thu Apr 23 14:59:22 EEST 2020","Thu Apr 23 14:59:22 EEST 2020","346","All Test","SPSA API Test","com.epam.services.spsa.TagServiceTest","com.epam.services.spsa.TagServiceTest","testGetTagByIncorrectId","testGetTagByIncorrectId",""
"passed","Thu Apr 23 14:59:18 EEST 2020","Thu Apr 23 14:59:20 EEST 2020","1610","All Test","SPSA API Test","com.epam.services.spsa.TagServiceTest","com.epam.services.spsa.TagServiceTest","testAddAndDeleteTag","testAddAndDeleteTag",""
"passed","Thu Apr 23 14:59:50 EEST 2020","Thu Apr 23 14:59:50 EEST 2020","393","All Test","SPSA API Test","com.epam.services.spsa.BlogServiceTest","com.epam.services.spsa.BlogServiceTest","testGetArticleByCorrectId","testGetArticleByCorrectId",""
"passed","Thu Apr 23 14:58:12 EEST 2020","Thu Apr 23 14:58:12 EEST 2020","340","All Test","SPSA API Test","com.epam.services.spsa.ArticleCommentServiceTest","com.epam.services.spsa.ArticleCommentServiceTest","incrementCommentRatingByIncorrectId","incrementCommentRatingByIncorrectId",""
"failed","Thu Apr 23 13:38:29 EEST 2020","Thu Apr 23 13:38:34 EEST 2020","5195","Default Suite","test-automation_remote","com.epam.services.spsa.EventServiceTest","com.epam.services.spsa.EventServiceTest","testAddEditAndDeleteEvent","testAddEditAndDeleteEvent",""
"broken","Thu Apr 23 15:00:32 EEST 2020","Thu Apr 23 15:00:33 EEST 2020","365","All Test","SLSA API Test","com.epam.services.slsa.LocationServiceTest","com.epam.services.slsa.LocationServiceTest","testGetLocationByCorrectId","testGetLocationByCorrectId",""
"passed","Thu Apr 23 15:00:33 EEST 2020","Thu Apr 23 15:00:33 EEST 2020","344","All Test","SLSA API Test","com.epam.services.slsa.LocationServiceTest","com.epam.services.slsa.LocationServiceTest","testGetLocationByIncorrectId","testGetLocationByIncorrectId",""
"broken","Thu Apr 23 15:00:38 EEST 2020","Thu Apr 23 15:00:38 EEST 2020","555","All Test","SLSA API Test","com.epam.services.slsa.VenueServiceTest","com.epam.services.slsa.VenueServiceTest","testViewMatchedListOfVenues","testViewMatchedListOfVenues",""
"passed","Thu Apr 23 14:59:22 EEST 2020","Thu Apr 23 14:59:26 EEST 2020","3826","All Test","SPSA API Test","com.epam.services.spsa.EventServiceTest","com.epam.services.spsa.EventServiceTest","testAddEditAndDeleteEvent","testAddEditAndDeleteEvent",""
"passed","Thu Apr 23 15:00:33 EEST 2020","Thu Apr 23 15:00:35 EEST 2020","1963","All Test","SLSA API Test","com.epam.services.slsa.CommentServiceTest","com.epam.services.slsa.CommentServiceTest","testAddEditAndDeleteCommentByCommentId","testAddEditAndDeleteCommentByCommentId",""
"passed","Thu Apr 23 14:59:17 EEST 2020","Thu Apr 23 14:59:18 EEST 2020","1443","All Test","SPSA API Test","com.epam.services.spsa.AuthenticationServiceTest","com.epam.services.spsa.AuthenticationServiceTest","testSuccessfulLogInAndLogOut","testSuccessfulLogInAndLogOut",""
"passed","Thu Apr 23 14:58:17 EEST 2020","Thu Apr 23 14:58:21 EEST 2020","3843","All Test","SPSA API Test","com.epam.services.spsa.ArticleCommentServiceTest","com.epam.services.spsa.ArticleCommentServiceTest","testAddEditReplyAndDeleteComment","testAddEditReplyAndDeleteComment",""
"passed","Thu Apr 23 14:57:59 EEST 2020","Thu Apr 23 14:58:00 EEST 2020","383","All Test","SPSA API Test","com.epam.services.spsa.UserAddressServiceTest","com.epam.services.spsa.UserAddressServiceTest","getAddressByIncorrectCoordinatesTest","getAddressByIncorrectCoordinatesTest",""
"passed","Thu Apr 23 14:58:10 EEST 2020","Thu Apr 23 14:58:11 EEST 2020","531","All Test","SPSA API Test","com.epam.services.spsa.ArticleCommentServiceTest","com.epam.services.spsa.ArticleCommentServiceTest","addNewCommentWithImageByIncorrectId","addNewCommentWithImageByIncorrectId",""
"passed","Thu Apr 23 14:59:53 EEST 2020","Thu Apr 23 14:59:53 EEST 2020","310","All Test","SPSA API Test","com.epam.services.spsa.RoleServiceTest","com.epam.services.spsa.RoleServiceTest","testGetRoleByCorrectId","testGetRoleByCorrectId",""
"passed","Thu Apr 23 14:57:59 EEST 2020","Thu Apr 23 14:57:59 EEST 2020","402","All Test","SPSA API Test","com.epam.services.spsa.UserAddressServiceTest","com.epam.services.spsa.UserAddressServiceTest","getAddressByCorrectUsersIdTest","getAddressByCorrectUsersIdTest",""
"passed","Thu Apr 23 15:00:16 EEST 2020","Thu Apr 23 15:00:17 EEST 2020","336","All Test","SLSA API Test","com.epam.services.slsa.LocationTypeServiceTest","com.epam.services.slsa.LocationTypeServiceTest","testGetLocationTypeByCorrectId","testGetLocationTypeByCorrectId",""
"passed","Thu Apr 23 14:59:13 EEST 2020","Thu Apr 23 14:59:13 EEST 2020","398","All Test","SPSA API Test","com.epam.services.spsa.UserServiceTest","com.epam.services.spsa.UserServiceTest","testGetUserByCorrectId","testGetUserByCorrectId",""
"failed","Thu Apr 23 14:02:34 EEST 2020","Thu Apr 23 14:02:35 EEST 2020","1585","All Test","SPSA API Test","com.epam.services.spsa.UserServiceTest","com.epam.services.spsa.UserServiceTest","testAddEditAndDeleteUserWithImage","testAddEditAndDeleteUserWithImage",""
"broken","Thu Apr 23 15:00:32 EEST 2020","Thu Apr 23 15:00:32 EEST 2020","401","All Test","SLSA API Test","com.epam.services.slsa.LocationServiceTest","com.epam.services.slsa.LocationServiceTest","testGetLocationByCorrectId","testGetLocationByCorrectId",""
"passed","Thu Apr 23 14:59:57 EEST 2020","Thu Apr 23 14:59:57 EEST 2020","331","All Test","SLSA API Test","com.epam.services.slsa.SportTypeServiceTest","com.epam.services.slsa.SportTypeServiceTest","testGetSportTypeByIncorrectId","testGetSportTypeByIncorrectId",""
"passed","Thu Apr 23 14:59:51 EEST 2020","Thu Apr 23 14:59:51 EEST 2020","316","All Test","SPSA API Test","com.epam.services.spsa.BlogServiceTest","com.epam.services.spsa.BlogServiceTest","testGetArticleByIncorrectId","testGetArticleByIncorrectId",""
"passed","Thu Apr 23 14:58:01 EEST 2020","Thu Apr 23 14:58:01 EEST 2020","478","All Test","SPSA API Test","com.epam.services.spsa.FormServiceTest","com.epam.services.spsa.FormServiceTest","testSaveFormUnauthorized","testSaveFormUnauthorized",""
"passed","Thu Apr 23 14:59:57 EEST 2020","Thu Apr 23 14:59:57 EEST 2020","340","All Test","SLSA API Test","com.epam.services.slsa.SportTypeServiceTest","com.epam.services.slsa.SportTypeServiceTest","testGetSportTypeByIncorrectId","testGetSportTypeByIncorrectId",""
"passed","Thu Apr 23 14:59:22 EEST 2020","Thu Apr 23 14:59:26 EEST 2020","3904","All Test","SPSA API Test","com.epam.services.spsa.EventServiceTest","com.epam.services.spsa.EventServiceTest","testAddEditAndDeleteEvent","testAddEditAndDeleteEvent",""
"passed","Thu Apr 23 15:00:18 EEST 2020","Thu Apr 23 15:00:18 EEST 2020","350","All Test","SLSA API Test","com.epam.services.slsa.LocationScheduleServiceTest","com.epam.services.slsa.LocationScheduleServiceTest","testGetLocationScheduleByIncorrectId","testGetLocationScheduleByIncorrectId",""
"broken","Thu Apr 23 15:00:32 EEST 2020","Thu Apr 23 15:00:32 EEST 2020","341","All Test","SLSA API Test","com.epam.services.slsa.LocationServiceTest","com.epam.services.slsa.LocationServiceTest","testGetLocationByCorrectId","testGetLocationByCorrectId",""
"passed","Thu Apr 23 14:59:21 EEST 2020","Thu Apr 23 14:59:21 EEST 2020","323","All Test","SPSA API Test","com.epam.services.spsa.TagServiceTest","com.epam.services.spsa.TagServiceTest","testGetArticlesByIncorrectTag","testGetArticlesByIncorrectTag",""
"failed","Thu Apr 23 14:01:50 EEST 2020","Thu Apr 23 14:01:51 EEST 2020","870","All Test","SPSA API Test","com.epam.services.spsa.FormServiceTest","com.epam.services.spsa.FormServiceTest","gg","gg",""
"passed","Thu Apr 23 14:58:40 EEST 2020","Thu Apr 23 14:58:41 EEST 2020","354","All Test","SPSA API Test","com.epam.services.spsa.UserStatisticsServiceTest","com.epam.services.spsa.UserStatisticsServiceTest","testGetUserLastStatistics","testGetUserLastStatistics",""
"passed","Thu Apr 23 14:58:11 EEST 2020","Thu Apr 23 14:58:12 EEST 2020","376","All Test","SPSA API Test","com.epam.services.spsa.ArticleCommentServiceTest","com.epam.services.spsa.ArticleCommentServiceTest","editCommentByIncorrectId","editCommentByIncorrectId",""
"passed","Thu Apr 23 14:59:50 EEST 2020","Thu Apr 23 14:59:51 EEST 2020","319","All Test","SPSA API Test","com.epam.services.spsa.BlogServiceTest","com.epam.services.spsa.BlogServiceTest","testGetArticleByCorrectId","testGetArticleByCorrectId",""
"passed","Thu Apr 23 14:58:41 EEST 2020","Thu Apr 23 14:58:55 EEST 2020","14189","All Test","SPSA API Test","com.epam.services.spsa.UserServiceTest","com.epam.services.spsa.UserServiceTest","testAddEditAndDeleteUserWithImage","testAddEditAndDeleteUserWithImage",""
"passed","Thu Apr 23 14:59:35 EEST 2020","Thu Apr 23 14:59:37 EEST 2020","2014","All Test","SPSA API Test","com.epam.services.spsa.BlogServiceTest","com.epam.services.spsa.BlogServiceTest","testAddEditAndDeleteArticle","testAddEditAndDeleteArticle",""
"broken","Thu Apr 23 15:00:32 EEST 2020","Thu Apr 23 15:00:32 EEST 2020","366","All Test","SLSA API Test","com.epam.services.slsa.LocationServiceTest","com.epam.services.slsa.LocationServiceTest","testGetLocationByCorrectId","testGetLocationByCorrectId",""
"passed","Thu Apr 23 14:59:14 EEST 2020","Thu Apr 23 14:59:16 EEST 2020","2313","All Test","SPSA API Test","com.epam.services.spsa.AuthenticationServiceTest","com.epam.services.spsa.AuthenticationServiceTest","goOnlineAndOffline","goOnlineAndOffline",""
"passed","Thu Apr 23 14:58:12 EEST 2020","Thu Apr 23 14:58:12 EEST 2020","406","All Test","SPSA API Test","com.epam.services.spsa.ArticleCommentServiceTest","com.epam.services.spsa.ArticleCommentServiceTest","editCommentWithImageByIncorrectId","editCommentWithImageByIncorrectId",""
"passed","Thu Apr 23 14:58:13 EEST 2020","Thu Apr 23 14:58:13 EEST 2020","380","All Test","SPSA API Test","com.epam.services.spsa.ArticleCommentServiceTest","com.epam.services.spsa.ArticleCommentServiceTest","replyCommentByIncorrectId","replyCommentByIncorrectId",""
"passed","Thu Apr 23 15:00:16 EEST 2020","Thu Apr 23 15:00:16 EEST 2020","355","All Test","SLSA API Test","com.epam.services.slsa.LocationTypeServiceTest","com.epam.services.slsa.LocationTypeServiceTest","testGetAllLocationTypes","testGetAllLocationTypes",""
"passed","Thu Apr 23 14:59:57 EEST 2020","Thu Apr 23 15:00:03 EEST 2020","5770","All Test","SLSA API Test","com.epam.services.slsa.CoachServiceTest","com.epam.services.slsa.CoachServiceTest","testAddAndEditAndDeleteCoach","testAddAndEditAndDeleteCoach",""
"passed","Thu Apr 23 14:58:03 EEST 2020","Thu Apr 23 14:58:03 EEST 2020","446","All Test","SPSA API Test","com.epam.services.spsa.PartnerServiceTest","com.epam.services.spsa.PartnerServiceTest","testGetAllCriteriaByCorrectUserId","testGetAllCriteriaByCorrectUserId",""
"passed","Thu Apr 23 14:59:52 EEST 2020","Thu Apr 23 14:59:52 EEST 2020","320","All Test","SPSA API Test","com.epam.services.spsa.BlogServiceTest","com.epam.services.spsa.BlogServiceTest","testGetArticlesByIncorrectPageAndSize","testGetArticlesByIncorrectPageAndSize",""
"passed","Thu Apr 23 14:59:53 EEST 2020","Thu Apr 23 14:59:53 EEST 2020","361","All Test","SPSA API Test","com.epam.services.spsa.RoleServiceTest","com.epam.services.spsa.RoleServiceTest","testGetRoleByCorrectId","testGetRoleByCorrectId",""
"passed","Thu Apr 23 14:59:26 EEST 2020","Thu Apr 23 14:59:30 EEST 2020","3872","All Test","SPSA API Test","com.epam.services.spsa.EventServiceTest","com.epam.services.spsa.EventServiceTest","testAddEditAndDeleteEvent","testAddEditAndDeleteEvent",""
"passed","Thu Apr 23 14:58:13 EEST 2020","Thu Apr 23 14:58:13 EEST 2020","434","All Test","SPSA API Test","com.epam.services.spsa.ArticleCommentServiceTest","com.epam.services.spsa.ArticleCommentServiceTest","replyCommentWithImageByIncorrectId","replyCommentWithImageByIncorrectId",""
"passed","Thu Apr 23 14:59:55 EEST 2020","Thu Apr 23 14:59:55 EEST 2020","303","All Test","SLSA API Test","com.epam.services.slsa.LocationAddressServiceTest","com.epam.services.slsa.LocationAddressServiceTest","testGetAddressByIncorrectCoordinates","testGetAddressByIncorrectCoordinates",""
"passed","Thu Apr 23 14:59:56 EEST 2020","Thu Apr 23 14:59:57 EEST 2020","311","All Test","SLSA API Test","com.epam.services.slsa.SportTypeServiceTest","com.epam.services.slsa.SportTypeServiceTest","testGetSportTypeByCorrectId","testGetSportTypeByCorrectId",""
"passed","Thu Apr 23 14:59:11 EEST 2020","Thu Apr 23 14:59:11 EEST 2020","353","All Test","SPSA API Test","com.epam.services.spsa.UserServiceTest","com.epam.services.spsa.UserServiceTest","testAddUserImageByIncorrectId","testAddUserImageByIncorrectId",""
"passed","Thu Apr 23 14:59:55 EEST 2020","Thu Apr 23 14:59:56 EEST 2020","313","All Test","SLSA API Test","com.epam.services.slsa.LocationAddressServiceTest","com.epam.services.slsa.LocationAddressServiceTest","testGetAddressByIncorrectLocationId","testGetAddressByIncorrectLocationId",""
"passed","Thu Apr 23 15:00:35 EEST 2020","Thu Apr 23 15:00:37 EEST 2020","1912","All Test","SLSA API Test","com.epam.services.slsa.CommentServiceTest","com.epam.services.slsa.CommentServiceTest","testAddEditAndDeleteCommentByUserId","testAddEditAndDeleteCommentByUserId",""
"failed","Thu Apr 23 14:32:36 EEST 2020","Thu Apr 23 14:32:41 EEST 2020","5098","Default Suite","test-automation_remote","com.epam.services.spsa.AuthenticationServiceTest","com.epam.services.spsa.AuthenticationServiceTest","goOnlineAndOffline","goOnlineAndOffline",""
"passed","Thu Apr 23 14:59:12 EEST 2020","Thu Apr 23 14:59:12 EEST 2020","327","All Test","SPSA API Test","com.epam.services.spsa.UserServiceTest","com.epam.services.spsa.UserServiceTest","testEditUserImageByIncorrectId","testEditUserImageByIncorrectId",""
"passed","Thu Apr 23 14:58:29 EEST 2020","Thu Apr 23 14:58:34 EEST 2020","4420","All Test","SPSA API Test","com.epam.services.spsa.ArticleCommentServiceTest","com.epam.services.spsa.ArticleCommentServiceTest","testAddEditReplyAndDeleteCommentWithImage","testAddEditReplyAndDeleteCommentWithImage",""
"passed","Thu Apr 23 14:58:00 EEST 2020","Thu Apr 23 14:58:00 EEST 2020","381","All Test","SPSA API Test","com.epam.services.spsa.UserAddressServiceTest","com.epam.services.spsa.UserAddressServiceTest","getAddressByIncorrectUsersIdTest","getAddressByIncorrectUsersIdTest",""
"passed","Thu Apr 23 15:00:37 EEST 2020","Thu Apr 23 15:00:38 EEST 2020","387","All Test","SLSA API Test","com.epam.services.slsa.CommentServiceTest","com.epam.services.slsa.CommentServiceTest","testGetAllCommentsByIncorrectCoachId","testGetAllCommentsByIncorrectCoachId",""
"passed","Thu Apr 23 15:00:15 EEST 2020","Thu Apr 23 15:00:16 EEST 2020","357","All Test","SLSA API Test","com.epam.services.slsa.CoachServiceTest","com.epam.services.slsa.CoachServiceTest","testGetCoachByIncorrectId","testGetCoachByIncorrectId",""
"passed","Thu Apr 23 15:00:26 EEST 2020","Thu Apr 23 15:00:28 EEST 2020","2157","All Test","SLSA API Test","com.epam.services.slsa.LocationServiceTest","com.epam.services.slsa.LocationServiceTest","testAddEditAndDeleteLocationImage","testAddEditAndDeleteLocationImage",""
"failed","Thu Apr 23 14:03:10 EEST 2020","Thu Apr 23 14:03:11 EEST 2020","382","All Test","SPSA API Test","com.epam.services.spsa.UserServiceTest","com.epam.services.spsa.UserServiceTest","testAddEditAndDeleteUserWithImageUrl","testAddEditAndDeleteUserWithImageUrl",""
"passed","Thu Apr 23 14:59:14 EEST 2020","Thu Apr 23 14:59:16 EEST 2020","2262","All Test","SPSA API Test","com.epam.services.spsa.AuthenticationServiceTest","com.epam.services.spsa.AuthenticationServiceTest","goOnlineAndOffline","goOnlineAndOffline",""
"passed","Thu Apr 23 15:00:18 EEST 2020","Thu Apr 23 15:00:18 EEST 2020","346","All Test","SLSA API Test","com.epam.services.slsa.LocationScheduleServiceTest","com.epam.services.slsa.LocationScheduleServiceTest","testGetLocationScheduleByIncorrectId","testGetLocationScheduleByIncorrectId",""
"passed","Thu Apr 23 14:59:11 EEST 2020","Thu Apr 23 14:59:11 EEST 2020","369","All Test","SPSA API Test","com.epam.services.spsa.UserServiceTest","com.epam.services.spsa.UserServiceTest","testAddUserImageByIncorrectId","testAddUserImageByIncorrectId",""
"passed","Thu Apr 23 14:58:01 EEST 2020","Thu Apr 23 14:58:01 EEST 2020","519","All Test","SPSA API Test","com.epam.services.spsa.FormServiceTest","com.epam.services.spsa.FormServiceTest","testSaveFormUnauthorized","testSaveFormUnauthorized",""
"failed","Thu Apr 23 15:00:14 EEST 2020","Thu Apr 23 15:00:14 EEST 2020","397","All Test","SLSA API Test","com.epam.services.slsa.CoachServiceTest","com.epam.services.slsa.CoachServiceTest","testGetAllCoachesByCorrectLocationId","testGetAllCoachesByCorrectLocationId",""
"passed","Thu Apr 23 15:00:18 EEST 2020","Thu Apr 23 15:00:18 EEST 2020","354","All Test","SLSA API Test","com.epam.services.slsa.LocationScheduleServiceTest","com.epam.services.slsa.LocationScheduleServiceTest","testGetLocationScheduleByIncorrectId","testGetLocationScheduleByIncorrectId",""
"passed","Thu Apr 23 14:59:53 EEST 2020","Thu Apr 23 14:59:54 EEST 2020","336","All Test","SPSA API Test","com.epam.services.spsa.RoleServiceTest","com.epam.services.spsa.RoleServiceTest","testGetRoleByIncorrectId","testGetRoleByIncorrectId",""
"failed","Thu Apr 23 13:34:32 EEST 2020","Thu Apr 23 13:34:40 EEST 2020","7231","Default Suite","test-automation_remote","com.epam.services.spsa.EventServiceTest","com.epam.services.spsa.EventServiceTest","testAddEditAndDeleteEvent","testAddEditAndDeleteEvent",""
"passed","Thu Apr 23 14:58:12 EEST 2020","Thu Apr 23 14:58:12 EEST 2020","340","All Test","SPSA API Test","com.epam.services.spsa.ArticleCommentServiceTest","com.epam.services.spsa.ArticleCommentServiceTest","editCommentWithImageByIncorrectId","editCommentWithImageByIncorrectId",""
"passed","Thu Apr 23 14:58:10 EEST 2020","Thu Apr 23 14:58:11 EEST 2020","540","All Test","SPSA API Test","com.epam.services.spsa.ArticleCommentServiceTest","com.epam.services.spsa.ArticleCommentServiceTest","addNewCommentWithImageByIncorrectId","addNewCommentWithImageByIncorrectId",""
"passed","Thu Apr 23 14:59:18 EEST 2020","Thu Apr 23 14:59:19 EEST 2020","1444","All Test","SPSA API Test","com.epam.services.spsa.TagServiceTest","com.epam.services.spsa.TagServiceTest","testAddAndDeleteTag","testAddAndDeleteTag",""
"passed","Thu Apr 23 14:59:55 EEST 2020","Thu Apr 23 14:59:56 EEST 2020","311","All Test","SLSA API Test","com.epam.services.slsa.LocationAddressServiceTest","com.epam.services.slsa.LocationAddressServiceTest","testGetAddressByIncorrectLocationId","testGetAddressByIncorrectLocationId",""
"passed","Thu Apr 23 15:00:17 EEST 2020","Thu Apr 23 15:00:17 EEST 2020","329","All Test","SLSA API Test","com.epam.services.slsa.LocationScheduleServiceTest","com.epam.services.slsa.LocationScheduleServiceTest","testGetLocationScheduleByCorrectId","testGetLocationScheduleByCorrectId",""
"passed","Thu Apr 23 14:59:34 EEST 2020","Thu Apr 23 14:59:34 EEST 2020","414","All Test","SPSA API Test","com.epam.services.spsa.EventServiceTest","com.epam.services.spsa.EventServiceTest","testGetEventByIncorrectEventId","testGetEventByIncorrectEventId",""
"passed","Thu Apr 23 14:58:39 EEST 2020","Thu Apr 23 14:58:40 EEST 2020","397","All Test","SPSA API Test","com.epam.services.spsa.SportTypeServiceTest","com.epam.services.spsa.SportTypeServiceTest","testGetSportTypeByIncorrectId","testGetSportTypeByIncorrectId",""
"passed","Thu Apr 23 14:59:13 EEST 2020","Thu Apr 23 14:59:14 EEST 2020","395","All Test","SPSA API Test","com.epam.services.spsa.UserServiceTest","com.epam.services.spsa.UserServiceTest","testGetUserByIncorrectId","testGetUserByIncorrectId",""
"passed","Thu Apr 23 14:59:11 EEST 2020","Thu Apr 23 14:59:11 EEST 2020","365","All Test","SPSA API Test","com.epam.services.spsa.UserServiceTest","com.epam.services.spsa.UserServiceTest","testAddUserImageByIncorrectId","testAddUserImageByIncorrectId",""
"passed","Thu Apr 23 14:59:56 EEST 2020","Thu Apr 23 14:59:57 EEST 2020","348","All Test","SLSA API Test","com.epam.services.slsa.SportTypeServiceTest","com.epam.services.slsa.SportTypeServiceTest","testGetSportTypeByCorrectId","testGetSportTypeByCorrectId",""
"passed","Thu Apr 23 14:57:54 EEST 2020","Thu Apr 23 14:57:59 EEST 2020","5285","All Test","SPSA API Test","com.epam.services.spsa.UserAddressServiceTest","com.epam.services.spsa.UserAddressServiceTest","getAddressByCorrectCoordinatesTest","getAddressByCorrectCoordinatesTest",""
"passed","Thu Apr 23 14:59:51 EEST 2020","Thu Apr 23 14:59:52 EEST 2020","351","All Test","SPSA API Test","com.epam.services.spsa.BlogServiceTest","com.epam.services.spsa.BlogServiceTest","testGetArticlesByCorrectPageAndSize","testGetArticlesByCorrectPageAndSize",""
"passed","Thu Apr 23 14:59:11 EEST 2020","Thu Apr 23 14:59:11 EEST 2020","395","All Test","SPSA API Test","com.epam.services.spsa.UserServiceTest","com.epam.services.spsa.UserServiceTest","testAddUserImageUrlByIncorrectUrl","testAddUserImageUrlByIncorrectUrl",""
"passed","Thu Apr 23 15:00:16 EEST 2020","Thu Apr 23 15:00:17 EEST 2020","366","All Test","SLSA API Test","com.epam.services.slsa.LocationTypeServiceTest","com.epam.services.slsa.LocationTypeServiceTest","testGetLocationTypeByCorrectId","testGetLocationTypeByCorrectId",""
"passed","Thu Apr 23 14:59:52 EEST 2020","Thu Apr 23 14:59:52 EEST 2020","346","All Test","SPSA API Test","com.epam.services.spsa.BlogServiceTest","com.epam.services.spsa.BlogServiceTest","testGetArticlesByCorrectPageAndSize","testGetArticlesByCorrectPageAndSize",""
"passed","Thu Apr 23 14:58:41 EEST 2020","Thu Apr 23 14:58:56 EEST 2020","14963","All Test","SPSA API Test","com.epam.services.spsa.UserServiceTest","com.epam.services.spsa.UserServiceTest","testAddEditAndDeleteUserWithImage","testAddEditAndDeleteUserWithImage",""
"passed","Thu Apr 23 14:59:52 EEST 2020","Thu Apr 23 14:59:52 EEST 2020","350","All Test","SPSA API Test","com.epam.services.spsa.BlogServiceTest","com.epam.services.spsa.BlogServiceTest","testGetArticlesByIncorrectPageAndSize","testGetArticlesByIncorrectPageAndSize",""
"passed","Thu Apr 23 14:59:51 EEST 2020","Thu Apr 23 14:59:51 EEST 2020","379","All Test","SPSA API Test","com.epam.services.spsa.BlogServiceTest","com.epam.services.spsa.BlogServiceTest","testGetArticleByIncorrectId","testGetArticleByIncorrectId",""
"passed","Thu Apr 23 14:58:34 EEST 2020","Thu Apr 23 14:58:38 EEST 2020","4419","All Test","SPSA API Test","com.epam.services.spsa.ArticleCommentServiceTest","com.epam.services.spsa.ArticleCommentServiceTest","testAddEditReplyAndDeleteCommentWithImage","testAddEditReplyAndDeleteCommentWithImage",""
"passed","Thu Apr 23 14:59:13 EEST 2020","Thu Apr 23 14:59:13 EEST 2020","351","All Test","SPSA API Test","com.epam.services.spsa.UserServiceTest","com.epam.services.spsa.UserServiceTest","testGetUserByCorrectId","testGetUserByCorrectId",""
"passed","Thu Apr 23 14:59:34 EEST 2020","Thu Apr 23 14:59:34 EEST 2020","322","All Test","SPSA API Test","com.epam.services.spsa.EventServiceTest","com.epam.services.spsa.EventServiceTest","testAddIncorrectEvents","testAddIncorrectEvents",""
"passed","Thu Apr 23 14:58:04 EEST 2020","Thu Apr 23 14:58:04 EEST 2020","556","All Test","SPSA API Test","com.epam.services.spsa.PartnerServiceTest","com.epam.services.spsa.PartnerServiceTest","testGetPartners","testGetPartners",""
"passed","Thu Apr 23 15:00:28 EEST 2020","Thu Apr 23 15:00:30 EEST 2020","1844","All Test","SLSA API Test","com.epam.services.slsa.LocationServiceTest","com.epam.services.slsa.LocationServiceTest","testAddEditAndDeleteLocationImageUrl","testAddEditAndDeleteLocationImageUrl",""
"passed","Thu Apr 23 14:59:34 EEST 2020","Thu Apr 23 14:59:34 EEST 2020","355","All Test","SPSA API Test","com.epam.services.spsa.EventServiceTest","com.epam.services.spsa.EventServiceTest","testGetEventByIncorrectEventId","testGetEventByIncorrectEventId",""
"unknown","Thu Apr 23 14:57:54 EEST 2020","Thu Apr 23 14:57:54 EEST 2020","0","All Test","SPSA API Test","com.epam.services.spsa.BlogServiceTest","com.epam.services.spsa.BlogServiceTest","testAddArticleImageUrlByIncorrectUrl","testAddArticleImageUrlByIncorrectUrl",""
"passed","Thu Apr 23 15:00:33 EEST 2020","Thu Apr 23 15:00:33 EEST 2020","320","All Test","SLSA API Test","com.epam.services.slsa.LocationServiceTest","com.epam.services.slsa.LocationServiceTest","testGetLocationByIncorrectId","testGetLocationByIncorrectId",""
"passed","Thu Apr 23 14:59:30 EEST 2020","Thu Apr 23 14:59:34 EEST 2020","3804","All Test","SPSA API Test","com.epam.services.spsa.EventServiceTest","com.epam.services.spsa.EventServiceTest","testAddEditAndDeleteEvent","testAddEditAndDeleteEvent",""
"passed","Thu Apr 23 15:00:37 EEST 2020","Thu Apr 23 15:00:38 EEST 2020","386","All Test","SLSA API Test","com.epam.services.slsa.CommentServiceTest","com.epam.services.slsa.CommentServiceTest","testGetAllCommentsByIncorrectCoachId","testGetAllCommentsByIncorrectCoachId",""
"passed","Thu Apr 23 14:59:53 EEST 2020","Thu Apr 23 14:59:54 EEST 2020","375","All Test","SPSA API Test","com.epam.services.spsa.RoleServiceTest","com.epam.services.spsa.RoleServiceTest","testGetRoleByIncorrectId","testGetRoleByIncorrectId",""
"passed","Tue Apr 21 18:03:36 EEST 2020","Tue Apr 21 18:03:42 EEST 2020","6418","All Test","SPSA API Test","com.epam.services.spsa.UserServiceTest","com.epam.services.spsa.UserServiceTest","testAddEditAndDeleteUserWithImage","testAddEditAndDeleteUserWithImage",""
"passed","Thu Apr 23 14:58:03 EEST 2020","Thu Apr 23 14:58:03 EEST 2020","340","All Test","SPSA API Test","com.epam.services.spsa.PartnerServiceTest","com.epam.services.spsa.PartnerServiceTest","testGetAllCriteriaByIncorrectUserId","testGetAllCriteriaByIncorrectUserId",""
"passed","Thu Apr 23 14:58:39 EEST 2020","Thu Apr 23 14:58:39 EEST 2020","339","All Test","SPSA API Test","com.epam.services.spsa.SportTypeServiceTest","com.epam.services.spsa.SportTypeServiceTest","testGetSportTypeByCorrectId","testGetSportTypeByCorrectId",""
"failed","Tue Apr 21 18:02:53 EEST 2020","Tue Apr 21 18:02:54 EEST 2020","1240","All Test","SPSA API Test","com.epam.services.spsa.FormServiceTest","com.epam.services.spsa.FormServiceTest","testSaveAndDeleteForm","testSaveAndDeleteForm",""
"passed","Thu Apr 23 14:59:35 EEST 2020","Thu Apr 23 14:59:35 EEST 2020","316","All Test","SPSA API Test","com.epam.services.spsa.BlogServiceTest","com.epam.services.spsa.BlogServiceTest","testAddArticleImageByIncorrectId","testAddArticleImageByIncorrectId",""
"passed","Thu Apr 23 14:58:39 EEST 2020","Thu Apr 23 14:58:39 EEST 2020","308","All Test","SPSA API Test","com.epam.services.spsa.SportTypeServiceTest","com.epam.services.spsa.SportTypeServiceTest","testGetSportTypeByCorrectId","testGetSportTypeByCorrectId",""
"passed","Thu Apr 23 14:58:21 EEST 2020","Thu Apr 23 14:58:25 EEST 2020","3931","All Test","SPSA API Test","com.epam.services.spsa.ArticleCommentServiceTest","com.epam.services.spsa.ArticleCommentServiceTest","testAddEditReplyAndDeleteComment","testAddEditReplyAndDeleteComment",""
"passed","Thu Apr 23 14:59:51 EEST 2020","Thu Apr 23 14:59:51 EEST 2020","379","All Test","SPSA API Test","com.epam.services.spsa.BlogServiceTest","com.epam.services.spsa.BlogServiceTest","testGetArticleByIncorrectId","testGetArticleByIncorrectId",""
"passed","Thu Apr 23 15:00:15 EEST 2020","Thu Apr 23 15:00:15 EEST 2020","374","All Test","SLSA API Test","com.epam.services.slsa.CoachServiceTest","com.epam.services.slsa.CoachServiceTest","testGetCoachByCorrectId","testGetCoachByCorrectId",""
"failed","Thu Apr 23 14:59:34 EEST 2020","Thu Apr 23 14:59:35 EEST 2020","365","All Test","SPSA API Test","com.epam.services.spsa.EventServiceTest","com.epam.services.spsa.EventServiceTest","testGetEventByIncorrectUserId","testGetEventByIncorrectUserId",""
"passed","Thu Apr 23 15:00:15 EEST 2020","Thu Apr 23 15:00:16 EEST 2020","353","All Test","SLSA API Test","com.epam.services.slsa.CoachServiceTest","com.epam.services.slsa.CoachServiceTest","testGetCoachByIncorrectId","testGetCoachByIncorrectId",""
"passed","Thu Apr 23 14:58:03 EEST 2020","Thu Apr 23 14:58:03 EEST 2020","370","All Test","SPSA API Test","com.epam.services.spsa.PartnerServiceTest","com.epam.services.spsa.PartnerServiceTest","testGetAllCriteriaByIncorrectUserId","testGetAllCriteriaByIncorrectUserId",""
"passed","Thu Apr 23 15:00:17 EEST 2020","Thu Apr 23 15:00:17 EEST 2020","335","All Test","SLSA API Test","com.epam.services.slsa.LocationTypeServiceTest","com.epam.services.slsa.LocationTypeServiceTest","testGetLocationTypeByIncorrectId","testGetLocationTypeByIncorrectId",""
"passed","Tue Apr 21 18:03:36 EEST 2020","Tue Apr 21 18:03:42 EEST 2020","6250","All Test","SPSA API Test","com.epam.services.spsa.UserServiceTest","com.epam.services.spsa.UserServiceTest","testAddEditAndDeleteUserWithImage","testAddEditAndDeleteUserWithImage",""
"passed","Thu Apr 23 14:59:54 EEST 2020","Thu Apr 23 14:59:55 EEST 2020","348","All Test","SLSA API Test","com.epam.services.slsa.LocationAddressServiceTest","com.epam.services.slsa.LocationAddressServiceTest","testGetAddressByCorrectLocationId","testGetAddressByCorrectLocationId",""
"passed","Thu Apr 23 14:59:21 EEST 2020","Thu Apr 23 14:59:22 EEST 2020","376","All Test","SPSA API Test","com.epam.services.spsa.TagServiceTest","com.epam.services.spsa.TagServiceTest","testGetArticlesByIncorrectTag","testGetArticlesByIncorrectTag",""
"passed","Thu Apr 23 15:00:30 EEST 2020","Thu Apr 23 15:00:31 EEST 2020","1766","All Test","SLSA API Test","com.epam.services.slsa.LocationServiceTest","com.epam.services.slsa.LocationServiceTest","testAddEditAndDeleteLocationImageUrl","testAddEditAndDeleteLocationImageUrl",""
"failed","Thu Apr 23 13:32:22 EEST 2020","Thu Apr 23 13:32:27 EEST 2020","5547","Default Suite","test-automation_remote","com.epam.services.spsa.EventServiceTest","com.epam.services.spsa.EventServiceTest","testAddEditAndDeleteEvent","testAddEditAndDeleteEvent",""
"passed","Thu Apr 23 14:59:50 EEST 2020","Thu Apr 23 14:59:50 EEST 2020","384","All Test","SPSA API Test","com.epam.services.spsa.BlogServiceTest","com.epam.services.spsa.BlogServiceTest","testEditImageByIncorrectId","testEditImageByIncorrectId",""
"passed","Tue Apr 21 18:03:42 EEST 2020","Tue Apr 21 18:03:49 EEST 2020","6558","All Test","SPSA API Test","com.epam.services.spsa.UserServiceTest","com.epam.services.spsa.UserServiceTest","testAddEditAndDeleteUserWithImageUrl","testAddEditAndDeleteUserWithImageUrl",""
"passed","Thu Apr 23 14:58:40 EEST 2020","Thu Apr 23 14:58:40 EEST 2020","310","All Test","SPSA API Test","com.epam.services.spsa.UserStatisticsServiceTest","com.epam.services.spsa.UserStatisticsServiceTest","testGetAllUserStatisticsByIncorrectId","testGetAllUserStatisticsByIncorrectId",""
"passed","Thu Apr 23 14:58:39 EEST 2020","Thu Apr 23 14:58:39 EEST 2020","354","All Test","SPSA API Test","com.epam.services.spsa.SportTypeServiceTest","com.epam.services.spsa.SportTypeServiceTest","testGetSportTypeByCorrectId","testGetSportTypeByCorrectId",""
"passed","Thu Apr 23 14:59:21 EEST 2020","Thu Apr 23 14:59:21 EEST 2020","367","All Test","SPSA API Test","com.epam.services.spsa.TagServiceTest","com.epam.services.spsa.TagServiceTest","testGetAllTags","testGetAllTags",""
"passed","Thu Apr 23 14:59:53 EEST 2020","Thu Apr 23 14:59:54 EEST 2020","330","All Test","SPSA API Test","com.epam.services.spsa.RoleServiceTest","com.epam.services.spsa.RoleServiceTest","testGetRoleByIncorrectId","testGetRoleByIncorrectId",""
"passed","Thu Apr 23 14:58:40 EEST 2020","Thu Apr 23 14:58:41 EEST 2020","334","All Test","SPSA API Test","com.epam.services.spsa.UserStatisticsServiceTest","com.epam.services.spsa.UserStatisticsServiceTest","testGetUserLastStatistics","testGetUserLastStatistics",""
"passed","Thu Apr 23 14:58:10 EEST 2020","Thu Apr 23 14:58:10 EEST 2020","469","All Test","SPSA API Test","com.epam.services.spsa.ArticleCommentServiceTest","com.epam.services.spsa.ArticleCommentServiceTest","addNewCommentByIncorrectId","addNewCommentByIncorrectId",""
"passed","Thu Apr 23 14:58:10 EEST 2020","Thu Apr 23 14:58:11 EEST 2020","550","All Test","SPSA API Test","com.epam.services.spsa.ArticleCommentServiceTest","com.epam.services.spsa.ArticleCommentServiceTest","addNewCommentWithImageByIncorrectId","addNewCommentWithImageByIncorrectId",""
"passed","Thu Apr 23 14:59:54 EEST 2020","Thu Apr 23 14:59:55 EEST 2020","375","All Test","SLSA API Test","com.epam.services.slsa.LocationAddressServiceTest","com.epam.services.slsa.LocationAddressServiceTest","testGetAddressByCorrectLocationId","testGetAddressByCorrectLocationId",""
"passed","Thu Apr 23 14:59:51 EEST 2020","Thu Apr 23 14:59:52 EEST 2020","400","All Test","SPSA API Test","com.epam.services.spsa.BlogServiceTest","com.epam.services.spsa.BlogServiceTest","testGetArticlesByCorrectPageAndSize","testGetArticlesByCorrectPageAndSize",""
"passed","Thu Apr 23 14:58:11 EEST 2020","Thu Apr 23 14:58:12 EEST 2020","318","All Test","SPSA API Test","com.epam.services.spsa.ArticleCommentServiceTest","com.epam.services.spsa.ArticleCommentServiceTest","editCommentByIncorrectId","editCommentByIncorrectId",""
"passed","Thu Apr 23 15:00:03 EEST 2020","Thu Apr 23 15:00:09 EEST 2020","5760","All Test","SLSA API Test","com.epam.services.slsa.CoachServiceTest","com.epam.services.slsa.CoachServiceTest","testAddAndEditAndDeleteCoach","testAddAndEditAndDeleteCoach",""
"passed","Thu Apr 23 15:00:14 EEST 2020","Thu Apr 23 15:00:15 EEST 2020","333","All Test","SLSA API Test","com.epam.services.slsa.CoachServiceTest","com.epam.services.slsa.CoachServiceTest","testGetAllCoachesByCorrectLocationId","testGetAllCoachesByCorrectLocationId",""
"passed","Thu Apr 23 15:00:17 EEST 2020","Thu Apr 23 15:00:18 EEST 2020","375","All Test","SLSA API Test","com.epam.services.slsa.LocationScheduleServiceTest","com.epam.services.slsa.LocationScheduleServiceTest","testGetLocationScheduleByCorrectId","testGetLocationScheduleByCorrectId",""
"passed","Thu Apr 23 14:59:16 EEST 2020","Thu Apr 23 14:59:17 EEST 2020","659","All Test","SPSA API Test","com.epam.services.spsa.AuthenticationServiceTest","com.epam.services.spsa.AuthenticationServiceTest","testLogInFailed","testLogInFailed",""
"passed","Thu Apr 23 14:59:22 EEST 2020","Thu Apr 23 14:59:26 EEST 2020","3775","All Test","SPSA API Test","com.epam.services.spsa.EventServiceTest","com.epam.services.spsa.EventServiceTest","testAddEditAndDeleteEvent","testAddEditAndDeleteEvent",""
"failed","Tue Apr 21 18:02:53 EEST 2020","Tue Apr 21 18:02:54 EEST 2020","1409","All Test","SPSA API Test","com.epam.services.spsa.FormServiceTest","com.epam.services.spsa.FormServiceTest","testSaveAndDeleteForm","testSaveAndDeleteForm",""
"passed","Thu Apr 23 14:58:11 EEST 2020","Thu Apr 23 14:58:11 EEST 2020","375","All Test","SPSA API Test","com.epam.services.spsa.ArticleCommentServiceTest","com.epam.services.spsa.ArticleCommentServiceTest","decrementCommentRatingByIncorrectId","decrementCommentRatingByIncorrectId",""
"passed","Thu Apr 23 14:58:56 EEST 2020","Thu Apr 23 14:59:10 EEST 2020","14298","All Test","SPSA API Test","com.epam.services.spsa.UserServiceTest","com.epam.services.spsa.UserServiceTest","testAddEditAndDeleteUserWithImageUrl","testAddEditAndDeleteUserWithImageUrl",""
"passed","Thu Apr 23 14:58:10 EEST 2020","Thu Apr 23 14:58:10 EEST 2020","379","All Test","SPSA API Test","com.epam.services.spsa.PartnerServiceTest","com.epam.services.spsa.PartnerServiceTest","testSaveCriteriaWithIncorrectUserId","testSaveCriteriaWithIncorrectUserId",""
"passed","Thu Apr 23 14:59:35 EEST 2020","Thu Apr 23 14:59:35 EEST 2020","360","All Test","SPSA API Test","com.epam.services.spsa.BlogServiceTest","com.epam.services.spsa.BlogServiceTest","testAddArticleImageByIncorrectId","testAddArticleImageByIncorrectId",""
"failed","Thu Apr 23 14:03:28 EEST 2020","Thu Apr 23 14:03:29 EEST 2020","387","All Test","SPSA API Test","com.epam.services.spsa.AuthenticationServiceTest","com.epam.services.spsa.AuthenticationServiceTest","goOnlineAndOffline","goOnlineAndOffline",""
"failed","Thu Apr 23 13:29:53 EEST 2020","Thu Apr 23 13:29:58 EEST 2020","5867","Default Suite","test-automation_remote","com.epam.services.spsa.EventServiceTest","com.epam.services.spsa.EventServiceTest","testAddEditAndDeleteEvent","testAddEditAndDeleteEvent",""
"passed","Thu Apr 23 14:59:56 EEST 2020","Thu Apr 23 14:59:56 EEST 2020","314","All Test","SLSA API Test","com.epam.services.slsa.SportTypeServiceTest","com.epam.services.slsa.SportTypeServiceTest","testGetSportTypeByCorrectId","testGetSportTypeByCorrectId",""
"passed","Thu Apr 23 14:58:01 EEST 2020","Thu Apr 23 14:58:01 EEST 2020","514","All Test","SPSA API Test","com.epam.services.spsa.FormServiceTest","com.epam.services.spsa.FormServiceTest","testSaveFormUnauthorized","testSaveFormUnauthorized",""
"passed","Thu Apr 23 14:59:50 EEST 2020","Thu Apr 23 14:59:50 EEST 2020","360","All Test","SPSA API Test","com.epam.services.spsa.BlogServiceTest","com.epam.services.spsa.BlogServiceTest","testGetArticleByCorrectId","testGetArticleByCorrectId",""
"passed","Thu Apr 23 15:00:33 EEST 2020","Thu Apr 23 15:00:35 EEST 2020","1878","All Test","SLSA API Test","com.epam.services.slsa.CommentServiceTest","com.epam.services.slsa.CommentServiceTest","testAddEditAndDeleteCommentByCommentId","testAddEditAndDeleteCommentByCommentId",""
"passed","Thu Apr 23 14:59:44 EEST 2020","Thu Apr 23 14:59:50 EEST 2020","5213","All Test","SPSA API Test","com.epam.services.spsa.BlogServiceTest","com.epam.services.spsa.BlogServiceTest","testAddEditAndDeleteArticleWithImage","testAddEditAndDeleteArticleWithImage",""
"passed","Thu Apr 23 14:58:25 EEST 2020","Thu Apr 23 14:58:29 EEST 2020","4277","All Test","SPSA API Test","com.epam.services.spsa.ArticleCommentServiceTest","com.epam.services.spsa.ArticleCommentServiceTest","testAddEditReplyAndDeleteCommentWithImage","testAddEditReplyAndDeleteCommentWithImage",""
"passed","Thu Apr 23 14:59:55 EEST 2020","Thu Apr 23 14:59:55 EEST 2020","337","All Test","SLSA API Test","com.epam.services.slsa.LocationAddressServiceTest","com.epam.services.slsa.LocationAddressServiceTest","testGetAddressByCorrectLocationId","testGetAddressByCorrectLocationId",""
"failed","Thu Apr 23 14:32:44 EEST 2020","Thu Apr 23 14:32:44 EEST 2020","362","Default Suite","test-automation_remote","com.epam.services.spsa.AuthenticationServiceTest","com.epam.services.spsa.AuthenticationServiceTest","testSuccessfulLogInAndLogOut","testSuccessfulLogInAndLogOut",""
"passed","Thu Apr 23 14:59:13 EEST 2020","Thu Apr 23 14:59:13 EEST 2020","337","All Test","SPSA API Test","com.epam.services.spsa.UserServiceTest","com.epam.services.spsa.UserServiceTest","testGetUserByIncorrectId","testGetUserByIncorrectId",""
"passed","Thu Apr 23 14:59:16 EEST 2020","Thu Apr 23 14:59:17 EEST 2020","676","All Test","SPSA API Test","com.epam.services.spsa.AuthenticationServiceTest","com.epam.services.spsa.AuthenticationServiceTest","testLogInFailed","testLogInFailed",""
"passed","Thu Apr 23 14:59:14 EEST 2020","Thu Apr 23 14:59:16 EEST 2020","2331","All Test","SPSA API Test","com.epam.services.spsa.AuthenticationServiceTest","com.epam.services.spsa.AuthenticationServiceTest","goOnlineAndOffline","goOnlineAndOffline",""
"passed","Thu Apr 23 14:59:16 EEST 2020","Thu Apr 23 14:59:17 EEST 2020","688","All Test","SPSA API Test","com.epam.services.spsa.AuthenticationServiceTest","com.epam.services.spsa.AuthenticationServiceTest","testLogInFailed","testLogInFailed",""
"passed","Thu Apr 23 14:59:35 EEST 2020","Thu Apr 23 14:59:35 EEST 2020","384","All Test","SPSA API Test","com.epam.services.spsa.BlogServiceTest","com.epam.services.spsa.BlogServiceTest","testAddArticleImageByIncorrectId","testAddArticleImageByIncorrectId",""
"passed","Thu Apr 23 14:57:59 EEST 2020","Thu Apr 23 14:58:00 EEST 2020","366","All Test","SPSA API Test","com.epam.services.spsa.UserAddressServiceTest","com.epam.services.spsa.UserAddressServiceTest","getAddressByIncorrectCoordinatesTest","getAddressByIncorrectCoordinatesTest",""
"passed","Thu Apr 23 15:00:33 EEST 2020","Thu Apr 23 15:00:35 EEST 2020","1945","All Test","SLSA API Test","com.epam.services.slsa.CommentServiceTest","com.epam.services.slsa.CommentServiceTest","testAddEditAndDeleteCommentByCommentId","testAddEditAndDeleteCommentByCommentId",""
"passed","Thu Apr 23 14:59:54 EEST 2020","Thu Apr 23 14:59:54 EEST 2020","392","All Test","SLSA API Test","com.epam.services.slsa.LocationAddressServiceTest","com.epam.services.slsa.LocationAddressServiceTest","testGetAddressByCorrectCoordinates","testGetAddressByCorrectCoordinates",""
"passed","Thu Apr 23 14:59:12 EEST 2020","Thu Apr 23 14:59:12 EEST 2020","323","All Test","SPSA API Test","com.epam.services.spsa.UserServiceTest","com.epam.services.spsa.UserServiceTest","testEditUserImageByIncorrectId","testEditUserImageByIncorrectId",""
"passed","Thu Apr 23 14:58:04 EEST 2020","Thu Apr 23 14:58:07 EEST 2020","2853","All Test","SPSA API Test","com.epam.services.spsa.PartnerServiceTest","com.epam.services.spsa.PartnerServiceTest","testSaveAndDeleteCriteriaWithCorrectUserId","testSaveAndDeleteCriteriaWithCorrectUserId",""
"failed","Thu Apr 23 14:59:34 EEST 2020","Thu Apr 23 14:59:34 EEST 2020","386","All Test","SPSA API Test","com.epam.services.spsa.EventServiceTest","com.epam.services.spsa.EventServiceTest","testAddIncorrectEvents","testAddIncorrectEvents",""
"passed","Thu Apr 23 14:59:50 EEST 2020","Thu Apr 23 14:59:50 EEST 2020","341","All Test","SPSA API Test","com.epam.services.spsa.BlogServiceTest","com.epam.services.spsa.BlogServiceTest","testEditImageByIncorrectId","testEditImageByIncorrectId",""
"passed","Thu Apr 23 14:58:40 EEST 2020","Thu Apr 23 14:58:40 EEST 2020","396","All Test","SPSA API Test","com.epam.services.spsa.UserStatisticsServiceTest","com.epam.services.spsa.UserStatisticsServiceTest","testGetAllUserStatistics","testGetAllUserStatistics",""
"failed","Tue Apr 21 18:02:53 EEST 2020","Tue Apr 21 18:02:55 EEST 2020","1482","All Test","SPSA API Test","com.epam.services.spsa.FormServiceTest","com.epam.services.spsa.FormServiceTest","testSaveAndDeleteForm","testSaveAndDeleteForm",""
"passed","Thu Apr 23 14:59:18 EEST 2020","Thu Apr 23 14:59:20 EEST 2020","1576","All Test","SPSA API Test","com.epam.services.spsa.TagServiceTest","com.epam.services.spsa.TagServiceTest","testAddAndDeleteTag","testAddAndDeleteTag",""
"passed","Thu Apr 23 14:59:12 EEST 2020","Thu Apr 23 14:59:12 EEST 2020","360","All Test","SPSA API Test","com.epam.services.spsa.UserServiceTest","com.epam.services.spsa.UserServiceTest","testEditUserImageByIncorrectId","testEditUserImageByIncorrectId",""
"unknown","Thu Apr 23 14:57:53 EEST 2020","Thu Apr 23 14:57:53 EEST 2020","2","All Test","SPSA API Test","com.epam.services.spsa.AdminServiceTest","com.epam.services.spsa.AdminServiceTest","testGetAllLocationsByCorrectAdminId","testGetAllLocationsByCorrectAdminId",""
"passed","Thu Apr 23 15:00:15 EEST 2020","Thu Apr 23 15:00:16 EEST 2020","354","All Test","SLSA API Test","com.epam.services.slsa.CoachServiceTest","com.epam.services.slsa.CoachServiceTest","testGetCoachByIncorrectId","testGetCoachByIncorrectId",""
"passed","Tue Apr 21 18:03:36 EEST 2020","Tue Apr 21 18:03:42 EEST 2020","6569","All Test","SPSA API Test","com.epam.services.spsa.UserServiceTest","com.epam.services.spsa.UserServiceTest","testAddEditAndDeleteUserWithImage","testAddEditAndDeleteUserWithImage",""
"passed","Thu Apr 23 15:00:17 EEST 2020","Thu Apr 23 15:00:17 EEST 2020","319","All Test","SLSA API Test","com.epam.services.slsa.LocationTypeServiceTest","com.epam.services.slsa.LocationTypeServiceTest","testGetLocationTypeByIncorrectId","testGetLocationTypeByIncorrectId",""
"failed","Thu Apr 23 14:59:34 EEST 2020","Thu Apr 23 14:59:35 EEST 2020","367","All Test","SPSA API Test","com.epam.services.spsa.EventServiceTest","com.epam.services.spsa.EventServiceTest","testGetEventByIncorrectUserId","testGetEventByIncorrectUserId",""
"passed","Thu Apr 23 15:00:37 EEST 2020","Thu Apr 23 15:00:38 EEST 2020","369","All Test","SLSA API Test","com.epam.services.slsa.CommentServiceTest","com.epam.services.slsa.CommentServiceTest","testGetAllCommentsByIncorrectCoachId","testGetAllCommentsByIncorrectCoachId",""
"passed","Thu Apr 23 14:59:35 EEST 2020","Thu Apr 23 14:59:37 EEST 2020","2084","All Test","SPSA API Test","com.epam.services.spsa.BlogServiceTest","com.epam.services.spsa.BlogServiceTest","testAddEditAndDeleteArticle","testAddEditAndDeleteArticle",""
"passed","Thu Apr 23 14:58:00 EEST 2020","Thu Apr 23 14:58:01 EEST 2020","444","All Test","SPSA API Test","com.epam.services.spsa.UserAddressServiceTest","com.epam.services.spsa.UserAddressServiceTest","getAllAddressesTest","getAllAddressesTest",""
"passed","Thu Apr 23 15:00:28 EEST 2020","Thu Apr 23 15:00:30 EEST 2020","1795","All Test","SLSA API Test","com.epam.services.slsa.LocationServiceTest","com.epam.services.slsa.LocationServiceTest","testAddEditAndDeleteLocationImageUrl","testAddEditAndDeleteLocationImageUrl",""
"passed","Thu Apr 23 14:58:13 EEST 2020","Thu Apr 23 14:58:13 EEST 2020","451","All Test","SPSA API Test","com.epam.services.spsa.ArticleCommentServiceTest","com.epam.services.spsa.ArticleCommentServiceTest","replyCommentWithImageByIncorrectId","replyCommentWithImageByIncorrectId",""
"passed","Thu Apr 23 14:59:55 EEST 2020","Thu Apr 23 14:59:55 EEST 2020","314","All Test","SLSA API Test","com.epam.services.slsa.LocationAddressServiceTest","com.epam.services.slsa.LocationAddressServiceTest","testGetAddressByIncorrectCoordinates","testGetAddressByIncorrectCoordinates",""
"passed","Thu Apr 23 14:59:39 EEST 2020","Thu Apr 23 14:59:44 EEST 2020","5122","All Test","SPSA API Test","com.epam.services.spsa.BlogServiceTest","com.epam.services.spsa.BlogServiceTest","testAddEditAndDeleteArticleWithImage","testAddEditAndDeleteArticleWithImage",""
"passed","Thu Apr 23 14:58:09 EEST 2020","Thu Apr 23 14:58:10 EEST 2020","359","All Test","SPSA API Test","com.epam.services.spsa.PartnerServiceTest","com.epam.services.spsa.PartnerServiceTest","testSaveCriteriaWithIncorrectUserId","testSaveCriteriaWithIncorrectUserId",""
"passed","Thu Apr 23 14:58:11 EEST 2020","Thu Apr 23 14:58:11 EEST 2020","373","All Test","SPSA API Test","com.epam.services.spsa.ArticleCommentServiceTest","com.epam.services.spsa.ArticleCommentServiceTest","decrementCommentRatingByIncorrectId","decrementCommentRatingByIncorrectId",""
"passed","Thu Apr 23 15:00:28 EEST 2020","Thu Apr 23 15:00:30 EEST 2020","1839","All Test","SLSA API Test","com.epam.services.slsa.LocationServiceTest","com.epam.services.slsa.LocationServiceTest","testAddEditAndDeleteLocationImageUrl","testAddEditAndDeleteLocationImageUrl",""
"passed","Thu Apr 23 14:58:13 EEST 2020","Thu Apr 23 14:58:13 EEST 2020","370","All Test","SPSA API Test","com.epam.services.spsa.ArticleCommentServiceTest","com.epam.services.spsa.ArticleCommentServiceTest","replyCommentByIncorrectId","replyCommentByIncorrectId",""
"unknown","Thu Apr 23 14:57:54 EEST 2020","Thu Apr 23 14:57:54 EEST 2020","0","All Test","SPSA API Test","com.epam.services.spsa.AdminServiceTest","com.epam.services.spsa.AdminServiceTest","testGetAllLocationsByIncorrectAdminId","testGetAllLocationsByIncorrectAdminId",""
"passed","Thu Apr 23 15:00:18 EEST 2020","Thu Apr 23 15:00:23 EEST 2020","5261","All Test","SLSA API Test","com.epam.services.slsa.LocationServiceTest","com.epam.services.slsa.LocationServiceTest","testAddEditAndDeleteLocation","testAddEditAndDeleteLocation",""
"passed","Thu Apr 23 14:59:35 EEST 2020","Thu Apr 23 14:59:37 EEST 2020","1964","All Test","SPSA API Test","com.epam.services.spsa.BlogServiceTest","com.epam.services.spsa.BlogServiceTest","testAddEditAndDeleteArticle","testAddEditAndDeleteArticle",""
"passed","Thu Apr 23 14:59:19 EEST 2020","Thu Apr 23 14:59:21 EEST 2020","1331","All Test","SPSA API Test","com.epam.services.spsa.TagServiceTest","com.epam.services.spsa.TagServiceTest","testAddAndDeleteTag","testAddAndDeleteTag",""
"passed","Thu Apr 23 14:59:54 EEST 2020","Thu Apr 23 14:59:54 EEST 2020","409","All Test","SLSA API Test","com.epam.services.slsa.LocationAddressServiceTest","com.epam.services.slsa.LocationAddressServiceTest","testGetAddressByCorrectCoordinates","testGetAddressByCorrectCoordinates",""
"passed","Thu Apr 23 15:00:33 EEST 2020","Thu Apr 23 15:00:33 EEST 2020","341","All Test","SLSA API Test","com.epam.services.slsa.LocationServiceTest","com.epam.services.slsa.LocationServiceTest","testGetLocationByIncorrectId","testGetLocationByIncorrectId",""
"passed","Tue Apr 21 18:03:42 EEST 2020","Tue Apr 21 18:03:49 EEST 2020","6474","All Test","SPSA API Test","com.epam.services.spsa.UserServiceTest","com.epam.services.spsa.UserServiceTest","testAddEditAndDeleteUserWithImageUrl","testAddEditAndDeleteUserWithImageUrl",""
"passed","Thu Apr 23 14:58:40 EEST 2020","Thu Apr 23 14:58:40 EEST 2020","379","All Test","SPSA API Test","com.epam.services.spsa.UserStatisticsServiceTest","com.epam.services.spsa.UserStatisticsServiceTest","testGetAllUserStatistics","testGetAllUserStatistics",""
"passed","Thu Apr 23 14:58:00 EEST 2020","Thu Apr 23 14:58:00 EEST 2020","337","All Test","SPSA API Test","com.epam.services.spsa.UserAddressServiceTest","com.epam.services.spsa.UserAddressServiceTest","getAddressByIncorrectCoordinatesTest","getAddressByIncorrectCoordinatesTest",""
"passed","Thu Apr 23 14:57:54 EEST 2020","Thu Apr 23 14:57:59 EEST 2020","5284","All Test","SPSA API Test","com.epam.services.spsa.UserAddressServiceTest","com.epam.services.spsa.UserAddressServiceTest","getAddressByCorrectCoordinatesTest","getAddressByCorrectCoordinatesTest",""
"failed","Thu Apr 23 14:59:12 EEST 2020","Thu Apr 23 14:59:13 EEST 2020","500","All Test","SPSA API Test","com.epam.services.spsa.UserServiceTest","com.epam.services.spsa.UserServiceTest","testGetAllUsers","testGetAllUsers",""
"passed","Thu Apr 23 14:58:01 EEST 2020","Thu Apr 23 14:58:02 EEST 2020","664","All Test","SPSA API Test","com.epam.services.spsa.PartnerServiceTest","com.epam.services.spsa.PartnerServiceTest","testGetAllCriteria","testGetAllCriteria",""
"passed","Thu Apr 23 15:00:15 EEST 2020","Thu Apr 23 15:00:15 EEST 2020","447","All Test","SLSA API Test","com.epam.services.slsa.CoachServiceTest","com.epam.services.slsa.CoachServiceTest","testGetAllCoachesByIncorrectLocationId","testGetAllCoachesByIncorrectLocationId",""
"passed","Thu Apr 23 14:58:40 EEST 2020","Thu Apr 23 14:58:41 EEST 2020","353","All Test","SPSA API Test","com.epam.services.spsa.UserStatisticsServiceTest","com.epam.services.spsa.UserStatisticsServiceTest","testGetUserLastStatistics","testGetUserLastStatistics",""
"passed","Thu Apr 23 14:57:59 EEST 2020","Thu Apr 23 14:57:59 EEST 2020","414","All Test","SPSA API Test","com.epam.services.spsa.UserAddressServiceTest","com.epam.services.spsa.UserAddressServiceTest","getAddressByCorrectUsersIdTest","getAddressByCorrectUsersIdTest",""
"passed","Thu Apr 23 14:59:21 EEST 2020","Thu Apr 23 14:59:21 EEST 2020","322","All Test","SPSA API Test","com.epam.services.spsa.TagServiceTest","com.epam.services.spsa.TagServiceTest","testGetArticlesByIncorrectTag","testGetArticlesByIncorrectTag",""
"passed","Thu Apr 23 14:57:59 EEST 2020","Thu Apr 23 14:58:00 EEST 2020","332","All Test","SPSA API Test","com.epam.services.spsa.UserAddressServiceTest","com.epam.services.spsa.UserAddressServiceTest","getAddressByIncorrectCoordinatesTest","getAddressByIncorrectCoordinatesTest",""
"passed","Thu Apr 23 14:58:39 EEST 2020","Thu Apr 23 14:58:39 EEST 2020","323","All Test","SPSA API Test","com.epam.services.spsa.SportTypeServiceTest","com.epam.services.spsa.SportTypeServiceTest","testGetSportTypeByCorrectId","testGetSportTypeByCorrectId",""
"passed","Thu Apr 23 14:58:41 EEST 2020","Thu Apr 23 14:58:56 EEST 2020","14627","All Test","SPSA API Test","com.epam.services.spsa.UserServiceTest","com.epam.services.spsa.UserServiceTest","testAddEditAndDeleteUserWithImage","testAddEditAndDeleteUserWithImage",""
"passed","Tue Apr 21 18:03:42 EEST 2020","Tue Apr 21 18:03:49 EEST 2020","6357","All Test","SPSA API Test","com.epam.services.spsa.UserServiceTest","com.epam.services.spsa.UserServiceTest","testAddEditAndDeleteUserWithImageUrl","testAddEditAndDeleteUserWithImageUrl",""
"passed","Thu Apr 23 14:01:51 EEST 2020","Thu Apr 23 14:01:51 EEST 2020","595","All Test","SPSA API Test","com.epam.services.spsa.FormServiceTest","com.epam.services.spsa.FormServiceTest","testSaveFormUnauthorized","testSaveFormUnauthorized",""
"passed","Thu Apr 23 15:00:17 EEST 2020","Thu Apr 23 15:00:18 EEST 2020","362","All Test","SLSA API Test","com.epam.services.slsa.LocationScheduleServiceTest","com.epam.services.slsa.LocationScheduleServiceTest","testGetLocationScheduleByCorrectId","testGetLocationScheduleByCorrectId",""
"failed","Thu Apr 23 13:23:38 EEST 2020","Thu Apr 23 13:23:43 EEST 2020","4627","Default Suite","test-automation_remote","com.epam.services.spsa.EventServiceTest","com.epam.services.spsa.EventServiceTest","testAddEditAndDeleteEvent","testAddEditAndDeleteEvent",""
"failed","Tue Apr 21 19:42:44 EEST 2020","Tue Apr 21 19:42:45 EEST 2020","424","Default Suite","test-automation_remote","com.epam.services.spsa.PartnerServiceTest","com.epam.services.spsa.PartnerServiceTest","testGetPartners","testGetPartners",""
"passed","Thu Apr 23 14:59:55 EEST 2020","Thu Apr 23 14:59:55 EEST 2020","303","All Test","SLSA API Test","com.epam.services.slsa.LocationAddressServiceTest","com.epam.services.slsa.LocationAddressServiceTest","testGetAddressByIncorrectCoordinates","testGetAddressByIncorrectCoordinates",""
"passed","Thu Apr 23 14:59:26 EEST 2020","Thu Apr 23 14:59:30 EEST 2020","3781","All Test","SPSA API Test","com.epam.services.spsa.EventServiceTest","com.epam.services.spsa.EventServiceTest","testAddEditAndDeleteEvent","testAddEditAndDeleteEvent",""
"passed","Thu Apr 23 14:59:37 EEST 2020","Thu Apr 23 14:59:39 EEST 2020","2150","All Test","SPSA API Test","com.epam.services.spsa.BlogServiceTest","com.epam.services.spsa.BlogServiceTest","testAddEditAndDeleteArticle","testAddEditAndDeleteArticle",""
"passed","Thu Apr 23 14:59:53 EEST 2020","Thu Apr 23 14:59:53 EEST 2020","374","All Test","SPSA API Test","com.epam.services.spsa.RoleServiceTest","com.epam.services.spsa.RoleServiceTest","testGetRoleByCorrectId","testGetRoleByCorrectId",""
"passed","Thu Apr 23 14:59:11 EEST 2020","Thu Apr 23 14:59:11 EEST 2020","406","All Test","SPSA API Test","com.epam.services.spsa.UserServiceTest","com.epam.services.spsa.UserServiceTest","testAddUserImageUrlByIncorrectUrl","testAddUserImageUrlByIncorrectUrl",""
"passed","Thu Apr 23 15:00:16 EEST 2020","Thu Apr 23 15:00:16 EEST 2020","345","All Test","SLSA API Test","com.epam.services.slsa.CoachServiceTest","com.epam.services.slsa.CoachServiceTest","testGetCoachByIncorrectId","testGetCoachByIncorrectId",""
"passed","Thu Apr 23 14:58:03 EEST 2020","Thu Apr 23 14:58:03 EEST 2020","334","All Test","SPSA API Test","com.epam.services.spsa.PartnerServiceTest","com.epam.services.spsa.PartnerServiceTest","testGetAllCriteriaByIncorrectUserId","testGetAllCriteriaByIncorrectUserId",""
"passed","Thu Apr 23 14:59:11 EEST 2020","Thu Apr 23 14:59:11 EEST 2020","320","All Test","SPSA API Test","com.epam.services.spsa.UserServiceTest","com.epam.services.spsa.UserServiceTest","testAddUserImageUrlByIncorrectUrl","testAddUserImageUrlByIncorrectUrl",""
"passed","Thu Apr 23 14:59:54 EEST 2020","Thu Apr 23 14:59:55 EEST 2020","339","All Test","SLSA API Test","com.epam.services.slsa.LocationAddressServiceTest","com.epam.services.slsa.LocationAddressServiceTest","testGetAddressByCorrectLocationId","testGetAddressByCorrectLocationId",""
"passed","Thu Apr 23 15:00:35 EEST 2020","Thu Apr 23 15:00:37 EEST 2020","2078","All Test","SLSA API Test","com.epam.services.slsa.CommentServiceTest","com.epam.services.slsa.CommentServiceTest","testAddEditAndDeleteCommentByUserId","testAddEditAndDeleteCommentByUserId",""
"passed","Thu Apr 23 14:59:54 EEST 2020","Thu Apr 23 14:59:54 EEST 2020","383","All Test","SLSA API Test","com.epam.services.slsa.LocationAddressServiceTest","com.epam.services.slsa.LocationAddressServiceTest","testGetAddressByCorrectCoordinates","testGetAddressByCorrectCoordinates",""
"passed","Thu Apr 23 14:58:10 EEST 2020","Thu Apr 23 14:58:10 EEST 2020","478","All Test","SPSA API Test","com.epam.services.spsa.ArticleCommentServiceTest","com.epam.services.spsa.ArticleCommentServiceTest","addNewCommentByIncorrectId","addNewCommentByIncorrectId",""
"passed","Thu Apr 23 14:59:52 EEST 2020","Thu Apr 23 14:59:52 EEST 2020","330","All Test","SPSA API Test","com.epam.services.spsa.BlogServiceTest","com.epam.services.spsa.BlogServiceTest","testGetArticlesByIncorrectPageAndSize","testGetArticlesByIncorrectPageAndSize",""
"passed","Thu Apr 23 14:59:55 EEST 2020","Thu Apr 23 14:59:55 EEST 2020","305","All Test","SLSA API Test","com.epam.services.slsa.LocationAddressServiceTest","com.epam.services.slsa.LocationAddressServiceTest","testGetAddressByIncorrectCoordinates","testGetAddressByIncorrectCoordinates",""
"passed","Thu Apr 23 14:58:41 EEST 2020","Thu Apr 23 14:58:41 EEST 2020","338","All Test","SPSA API Test","com.epam.services.spsa.UserStatisticsServiceTest","com.epam.services.spsa.UserStatisticsServiceTest","testGetUserLastStatisticsByIncorrectI","testGetUserLastStatisticsByIncorrectI",""
"passed","Thu Apr 23 14:58:09 EEST 2020","Thu Apr 23 14:58:09 EEST 2020","345","All Test","SPSA API Test","com.epam.services.spsa.PartnerServiceTest","com.epam.services.spsa.PartnerServiceTest","testSaveCriteriaWithIncorrectUserId","testSaveCriteriaWithIncorrectUserId",""
"passed","Thu Apr 23 15:00:17 EEST 2020","Thu Apr 23 15:00:18 EEST 2020","354","All Test","SLSA API Test","com.epam.services.slsa.LocationScheduleServiceTest","com.epam.services.slsa.LocationScheduleServiceTest","testGetLocationScheduleByCorrectId","testGetLocationScheduleByCorrectId",""
"passed","Thu Apr 23 14:59:11 EEST 2020","Thu Apr 23 14:59:12 EEST 2020","372","All Test","SPSA API Test","com.epam.services.spsa.UserServiceTest","com.epam.services.spsa.UserServiceTest","testAddUserWithIncorrectEmail","testAddUserWithIncorrectEmail",""
"passed","Thu Apr 23 15:00:15 EEST 2020","Thu Apr 23 15:00:15 EEST 2020","347","All Test","SLSA API Test","com.epam.services.slsa.CoachServiceTest","com.epam.services.slsa.CoachServiceTest","testGetAllCoachesByIncorrectLocationId","testGetAllCoachesByIncorrectLocationId",""
"passed","Thu Apr 23 15:00:17 EEST 2020","Thu Apr 23 15:00:17 EEST 2020","314","All Test","SLSA API Test","com.epam.services.slsa.LocationTypeServiceTest","com.epam.services.slsa.LocationTypeServiceTest","testGetLocationTypeByIncorrectId","testGetLocationTypeByIncorrectId",""
"passed","Thu Apr 23 14:58:12 EEST 2020","Thu Apr 23 14:58:13 EEST 2020","387","All Test","SPSA API Test","com.epam.services.spsa.ArticleCommentServiceTest","com.epam.services.spsa.ArticleCommentServiceTest","incrementCommentRatingByIncorrectId","incrementCommentRatingByIncorrectId",""
"passed","Thu Apr 23 14:58:12 EEST 2020","Thu Apr 23 14:58:12 EEST 2020","320","All Test","SPSA API Test","com.epam.services.spsa.ArticleCommentServiceTest","com.epam.services.spsa.ArticleCommentServiceTest","incrementCommentRatingByIncorrectId","incrementCommentRatingByIncorrectId",""
"passed","Thu Apr 23 14:58:39 EEST 2020","Thu Apr 23 14:58:40 EEST 2020","465","All Test","SPSA API Test","com.epam.services.spsa.SportTypeServiceTest","com.epam.services.spsa.SportTypeServiceTest","testGetSportTypeByIncorrectId","testGetSportTypeByIncorrectId",""
"passed","Thu Apr 23 14:59:50 EEST 2020","Thu Apr 23 14:59:50 EEST 2020","329","All Test","SPSA API Test","com.epam.services.spsa.BlogServiceTest","com.epam.services.spsa.BlogServiceTest","testGetArticleByCorrectId","testGetArticleByCorrectId",""
"failed","Thu Apr 23 14:59:34 EEST 2020","Thu Apr 23 14:59:35 EEST 2020","355","All Test","SPSA API Test","com.epam.services.spsa.EventServiceTest","com.epam.services.spsa.EventServiceTest","testGetEventByIncorrectUserId","testGetEventByIncorrectUserId",""
"passed","Thu Apr 23 14:59:17 EEST 2020","Thu Apr 23 14:59:18 EEST 2020","1369","All Test","SPSA API Test","com.epam.services.spsa.AuthenticationServiceTest","com.epam.services.spsa.AuthenticationServiceTest","testSuccessfulLogInAndLogOut","testSuccessfulLogInAndLogOut",""
"passed","Thu Apr 23 14:58:38 EEST 2020","Thu Apr 23 14:58:39 EEST 2020","324","All Test","SPSA API Test","com.epam.services.spsa.SportTypeServiceTest","com.epam.services.spsa.SportTypeServiceTest","testGetAllSportTypes","testGetAllSportTypes",""
"unknown","Tue Apr 21 18:02:45 EEST 2020","Tue Apr 21 18:02:45 EEST 2020","2","All Test","SPSA API Test","com.epam.services.spsa.FormServiceTest","com.epam.services.spsa.FormServiceTest","testSaveAndApproveForm","testSaveAndApproveForm",""
"failed","Thu Apr 23 13:23:38 EEST 2020","Thu Apr 23 13:23:43 EEST 2020","4617","Default Suite","test-automation_remote","com.epam.services.spsa.EventServiceTest","com.epam.services.spsa.EventServiceTest","testAddEditAndDeleteEvent","testAddEditAndDeleteEvent",""
"passed","Thu Apr 23 14:59:22 EEST 2020","Thu Apr 23 14:59:22 EEST 2020","339","All Test","SPSA API Test","com.epam.services.spsa.TagServiceTest","com.epam.services.spsa.TagServiceTest","testGetTagByIncorrectId","testGetTagByIncorrectId",""
"passed","Thu Apr 23 14:58:40 EEST 2020","Thu Apr 23 14:58:40 EEST 2020","388","All Test","SPSA API Test","com.epam.services.spsa.UserStatisticsServiceTest","com.epam.services.spsa.UserStatisticsServiceTest","testGetAllUserStatistics","testGetAllUserStatistics",""
"passed","Thu Apr 23 14:59:17 EEST 2020","Thu Apr 23 14:59:18 EEST 2020","1412","All Test","SPSA API Test","com.epam.services.spsa.AuthenticationServiceTest","com.epam.services.spsa.AuthenticationServiceTest","testSuccessfulLogInAndLogOut","testSuccessfulLogInAndLogOut",""
"passed","Thu Apr 23 14:58:10 EEST 2020","Thu Apr 23 14:58:10 EEST 2020","469","All Test","SPSA API Test","com.epam.services.spsa.ArticleCommentServiceTest","com.epam.services.spsa.ArticleCommentServiceTest","addNewCommentByIncorrectId","addNewCommentByIncorrectId",""
"passed","Thu Apr 23 14:59:30 EEST 2020","Thu Apr 23 14:59:34 EEST 2020","3873","All Test","SPSA API Test","com.epam.services.spsa.EventServiceTest","com.epam.services.spsa.EventServiceTest","testAddEditAndDeleteEvent","testAddEditAndDeleteEvent",""
"passed","Thu Apr 23 15:00:24 EEST 2020","Thu Apr 23 15:00:26 EEST 2020","2079","All Test","SLSA API Test","com.epam.services.slsa.LocationServiceTest","com.epam.services.slsa.LocationServiceTest","testAddEditAndDeleteLocationImage","testAddEditAndDeleteLocationImage",""
"passed","Thu Apr 23 14:58:07 EEST 2020","Thu Apr 23 14:58:09 EEST 2020","1493","All Test","SPSA API Test","com.epam.services.spsa.PartnerServiceTest","com.epam.services.spsa.PartnerServiceTest","testSaveAndDeleteCriteriaWithCorrectUserId","testSaveAndDeleteCriteriaWithCorrectUserId",""
"passed","Thu Apr 23 15:00:37 EEST 2020","Thu Apr 23 15:00:37 EEST 2020","401","All Test","SLSA API Test","com.epam.services.slsa.CommentServiceTest","com.epam.services.slsa.CommentServiceTest","testGetAllCommentsByCorrectCoachId","testGetAllCommentsByCorrectCoachId",""
"passed","Thu Apr 23 14:58:03 EEST 2020","Thu Apr 23 14:58:04 EEST 2020","500","All Test","SPSA API Test","com.epam.services.spsa.PartnerServiceTest","com.epam.services.spsa.PartnerServiceTest","testGetPartners","testGetPartners",""
"passed","Thu Apr 23 15:00:24 EEST 2020","Thu Apr 23 15:00:26 EEST 2020","2200","All Test","SLSA API Test","com.epam.services.slsa.LocationServiceTest","com.epam.services.slsa.LocationServiceTest","testAddEditAndDeleteLocationImage","testAddEditAndDeleteLocationImage",""
"passed","Thu Apr 23 14:58:56 EEST 2020","Thu Apr 23 14:59:11 EEST 2020","14513","All Test","SPSA API Test","com.epam.services.spsa.UserServiceTest","com.epam.services.spsa.UserServiceTest","testAddEditAndDeleteUserWithImageUrl","testAddEditAndDeleteUserWithImageUrl",""
"passed","Thu Apr 23 14:58:11 EEST 2020","Thu Apr 23 14:58:12 EEST 2020","397","All Test","SPSA API Test","com.epam.services.spsa.ArticleCommentServiceTest","com.epam.services.spsa.ArticleCommentServiceTest","editCommentByIncorrectId","editCommentByIncorrectId",""
"passed","Thu Apr 23 15:00:16 EEST 2020","Thu Apr 23 15:00:17 EEST 2020","338","All Test","SLSA API Test","com.epam.services.slsa.LocationTypeServiceTest","com.epam.services.slsa.LocationTypeServiceTest","testGetLocationTypeByCorrectId","testGetLocationTypeByCorrectId",""
"passed","Thu Apr 23 14:59:34 EEST 2020","Thu Apr 23 14:59:34 EEST 2020","321","All Test","SPSA API Test","com.epam.services.spsa.EventServiceTest","com.epam.services.spsa.EventServiceTest","testAddIncorrectEvents","testAddIncorrectEvents",""
"passed","Thu Apr 23 14:58:11 EEST 2020","Thu Apr 23 14:58:11 EEST 2020","394","All Test","SPSA API Test","com.epam.services.spsa.ArticleCommentServiceTest","com.epam.services.spsa.ArticleCommentServiceTest","decrementCommentRatingByIncorrectId","decrementCommentRatingByIncorrectId",""
"passed","Thu Apr 23 15:00:14 EEST 2020","Thu Apr 23 15:00:14 EEST 2020","333","All Test","SLSA API Test","com.epam.services.slsa.CoachServiceTest","com.epam.services.slsa.CoachServiceTest","testGetAllCoachesByCorrectLocationId","testGetAllCoachesByCorrectLocationId",""
"passed","Thu Apr 23 14:58:40 EEST 2020","Thu Apr 23 14:58:40 EEST 2020","324","All Test","SPSA API Test","com.epam.services.spsa.UserStatisticsServiceTest","com.epam.services.spsa.UserStatisticsServiceTest","testGetAllUserStatisticsByIncorrectId","testGetAllUserStatisticsByIncorrectId",""
"passed","Thu Apr 23 14:58:02 EEST 2020","Thu Apr 23 14:58:03 EEST 2020","412","All Test","SPSA API Test","com.epam.services.spsa.PartnerServiceTest","com.epam.services.spsa.PartnerServiceTest","testGetAllCriteriaByCorrectUserId","testGetAllCriteriaByCorrectUserId",""
"broken","Thu Apr 23 15:00:38 EEST 2020","Thu Apr 23 15:00:38 EEST 2020","471","All Test","SLSA API Test","com.epam.services.slsa.VenueServiceTest","com.epam.services.slsa.VenueServiceTest","testViewMatchedListOfVenues","testViewMatchedListOfVenues",""
"passed","Thu Apr 23 14:59:57 EEST 2020","Thu Apr 23 14:59:57 EEST 2020","309","All Test","SLSA API Test","com.epam.services.slsa.SportTypeServiceTest","com.epam.services.slsa.SportTypeServiceTest","testGetSportTypeByIncorrectId","testGetSportTypeByIncorrectId",""
"passed","Thu Apr 23 14:58:40 EEST 2020","Thu Apr 23 14:58:40 EEST 2020","353","All Test","SPSA API Test","com.epam.services.spsa.UserStatisticsServiceTest","com.epam.services.spsa.UserStatisticsServiceTest","testGetAllUserStatisticsByIncorrectId","testGetAllUserStatisticsByIncorrectId",""
"passed","Thu Apr 23 14:59:55 EEST 2020","Thu Apr 23 14:59:56 EEST 2020","312","All Test","SLSA API Test","com.epam.services.slsa.LocationAddressServiceTest","com.epam.services.slsa.LocationAddressServiceTest","testGetAddressByIncorrectLocationId","testGetAddressByIncorrectLocationId",""
"passed","Thu Apr 23 14:58:41 EEST 2020","Thu Apr 23 14:58:41 EEST 2020","380","All Test","SPSA API Test","com.epam.services.spsa.UserStatisticsServiceTest","com.epam.services.spsa.UserStatisticsServiceTest","testGetUserLastStatisticsByIncorrectI","testGetUserLastStatisticsByIncorrectI",""
