launch_status failed=24 1587643256000000000
launch_status broken=8 1587643256000000000
launch_status passed=253 1587643256000000000
launch_status skipped=0 1587643256000000000
launch_status unknown=4 1587643256000000000
launch_time duration=161873524 1587643256000000000
launch_time min_duration=0 1587643256000000000
launch_time max_duration=14963 1587643256000000000
launch_time sum_duration=430202 1587643256000000000
launch_problems product_defects=24 1587643256000000000
launch_problems test_defects=8 1587643256000000000
launch_retries retries=1409 1587643256000000000
launch_retries run=289 1587643256000000000
