[ {
  "data" : {
    "duration" : 161873524
  }
}, {
  "data" : {
    "duration" : 161251045
  }
}, {
  "data" : {
    "duration" : 158527843
  }
}, {
  "data" : {
    "duration" : 143899
  }
}, {
  "data" : {
    "duration" : 147890
  }
} ]