[ {
  "data" : {
    "failed" : 24,
    "broken" : 8,
    "skipped" : 0,
    "passed" : 253,
    "unknown" : 4,
    "total" : 289
  }
}, {
  "data" : {
    "failed" : 23,
    "broken" : 8,
    "skipped" : 0,
    "passed" : 254,
    "unknown" : 4,
    "total" : 289
  }
}, {
  "data" : {
    "failed" : 35,
    "broken" : 8,
    "skipped" : 0,
    "passed" : 229,
    "unknown" : 4,
    "total" : 276
  }
}, {
  "data" : {
    "failed" : 21,
    "broken" : 0,
    "skipped" : 0,
    "passed" : 219,
    "unknown" : 4,
    "total" : 244
  }
}, {
  "data" : {
    "failed" : 21,
    "broken" : 0,
    "skipped" : 0,
    "passed" : 219,
    "unknown" : 4,
    "total" : 244
  }
} ]